endpoint is : https://restful-booker.herokuapp.com/auth



requestbody is : null



Trigger time is : Fri, 15 Mar 2024 14:27:40 GMT



created booking id is: null

response body is : {
    "token": "8d7408dde50b249"
}

